<svg xmlns="http://www.w3.org/2000/svg" xmlns:xlink="http://www.w3.org/1999/xlink" width="49.359" height="40" viewBox="0 0 49.359 40">
  <defs>
    <linearGradient id="linear-gradient" x1="0.5" x2="0.5" y2="1" gradientUnits="objectBoundingBox">
      <stop offset="0" stop-color="#fe9c5b"/>
      <stop offset="1" stop-color="#f65e95"/>
    </linearGradient>
  </defs>
  <path id="icon-features_challenges" d="M11.9,23.41h1.323a14.677,14.677,0,0,0,9.692,8.154v4.551s-.574-2.129-4.087-.218a2.564,2.564,0,0,0,0,5.1H34.28a2.564,2.564,0,0,0,0-5.1c-3.513-1.921-4.087-2.292-4.087-2.292V31.554a14.677,14.677,0,0,0,9.692-8.144h1.3A10.026,10.026,0,0,0,51.229,13.385V7.292a1.605,1.605,0,0,0-1.6-1.605H41.208V2.61A1.605,1.605,0,0,0,39.6,1H13.5A1.605,1.605,0,0,0,11.9,2.605V5.682H3.475A1.605,1.605,0,0,0,1.87,7.287v6.1A10.026,10.026,0,0,0,11.9,23.41Zm29.313-6.036V10.744h4.949v2.621a4.954,4.954,0,0,1-4.949,4.949h-.036C41.193,18.015,41.208,17.7,41.208,17.374ZM6.947,10.744H11.9v6.631a8.519,8.519,0,0,0,.036.959H11.9a4.954,4.954,0,0,1-4.949-4.949Z" transform="translate(-1.87 -1)" fill="url(#linear-gradient)"/>
</svg>
