<svg xmlns="http://www.w3.org/2000/svg" xmlns:xlink="http://www.w3.org/1999/xlink" width="43.334" height="40" viewBox="0 0 43.334 40">
  <defs>
    <linearGradient id="linear-gradient" x1="1" x2="0" y2="1" gradientUnits="objectBoundingBox">
      <stop offset="0" stop-color="#30d0e6"/>
      <stop offset="1" stop-color="#259ccb"/>
    </linearGradient>
  </defs>
  <g id="icon-features_intakehistory" transform="translate(14777.001 16936.002)">
    <g id="Group_10160" data-name="Group 10160" transform="translate(-14777.001 -16936.002)">
      <path id="Union_1508" data-name="Union 1508" d="M6,40a6,6,0,0,1-6-6V11A6,6,0,0,1,6,5h4V3.334a3.334,3.334,0,0,1,6.667,0V5h10V3.334a3.334,3.334,0,0,1,6.667,0V5h4a6,6,0,0,1,6,6V34a6,6,0,0,1-6,6Z" transform="translate(0 0)" fill="url(#linear-gradient)"/>
    </g>
    <path id="Path_28296" data-name="Path 28296" d="M-7.528,0h2.869l-2.99-9.16h-3.377L-14.016,0h2.742l.476-1.822H-8Zm-1.9-7.046h.051l.882,3.326h-1.815Zm7.9-2.114H-4.215v5.9C-4.215-1.174-2.6.159-.178.159S3.859-1.174,3.859-3.263v-5.9H1.168v5.6c0,.965-.476,1.492-1.346,1.492S-1.523-2.6-1.523-3.561ZM13.774-3.9V-5.1H9.788v1.79h1.4l-.013.127A1.434,1.434,0,0,1,9.6-1.961c-1.181,0-1.949-1-1.949-2.666,0-1.631.673-2.571,1.815-2.571A1.528,1.528,0,0,1,11.02-6.087h2.647c-.2-1.879-1.917-3.231-4.215-3.231-2.825,0-4.545,1.727-4.545,4.729,0,3.041,1.72,4.748,4.627,4.748C12.194.159,13.774-1.39,13.774-3.9Z" transform="translate(-14755.751 -16908.502)" fill="#fff"/>
  </g>
</svg>
